%YAML 1.1
%TAG !u! tag:unity3d.com,2011:
--- !u!114 &11400000
MonoBehaviour:
  m_ObjectHideFlags: 0
  m_PrefabParentObject: {fileID: 0}
  m_PrefabInternal: {fileID: 0}
  m_GameObject: {fileID: 0}
  m_Enabled: 1
  m_EditorHideFlags: 0
  m_Script: {fileID: 11500000, guid: 8a484dde5537f41b6bdf7fb84a004410, type: 3}
  m_Name: HardBlock1
  m_EditorClassIdentifier: 
  symbolArray: 02000000030000000200000003000000
  _difficulty: 2
